<?xml version="1.0" standalone="no"?>
<!DOCTYPE svg PUBLIC "-//W3C//DTD SVG 20010904//EN"
 "http://www.w3.org/TR/2001/REC-SVG-20010904/DTD/svg10.dtd">
<svg version="1.0" xmlns="http://www.w3.org/2000/svg"
 width="992.000000pt" height="992.000000pt" viewBox="0 0 992.000000 992.000000"
 preserveAspectRatio="xMidYMid meet">
<metadata>
Created by potrace 1.11, written by Peter Selinger 2001-2013
</metadata>
<g transform="translate(0.000000,992.000000) scale(0.100000,-0.100000)"
fill="#000000" stroke="none">
<path d="M5905 9750 c-22 -4 -43 -6 -47 -4 -4 2 -9 0 -13 -6 -4 -6 -10 -8 -15
-5 -4 3 -24 -2 -44 -10 -20 -8 -36 -12 -36 -9 0 4 -7 1 -15 -6 -8 -7 -15 -9
-15 -6 0 4 -7 0 -16 -8 -8 -9 -22 -16 -30 -16 -8 0 -14 -4 -14 -8 0 -5 -11
-14 -23 -21 -13 -7 -39 -38 -58 -69 -32 -53 -34 -61 -34 -147 1 -82 4 -95 33
-151 39 -72 153 -193 225 -239 9 -5 43 -29 77 -52 33 -24 64 -43 69 -43 4 0
16 -9 26 -20 10 -11 22 -20 26 -20 5 0 30 -13 56 -28 75 -45 194 -108 316
-170 61 -31 115 -61 119 -67 4 -5 8 -7 8 -3 0 8 83 -34 106 -53 8 -6 14 -8 14
-5 0 4 19 -4 43 -17 23 -14 90 -50 150 -81 219 -115 295 -169 556 -400 74 -66
314 -309 371 -375 25 -30 54 -63 65 -75 11 -11 45 -52 75 -91 30 -38 57 -72
60 -75 18 -17 208 -294 257 -375 157 -259 305 -570 372 -780 12 -38 26 -79 31
-90 18 -43 29 -88 24 -96 -3 -5 0 -9 7 -9 7 0 10 -2 7 -6 -3 -3 1 -26 9 -52 8
-26 16 -58 19 -72 3 -14 7 -31 9 -39 14 -39 45 -212 40 -221 -3 -5 -2 -10 3
-10 5 0 9 -6 9 -12 1 -26 14 -123 18 -138 24 -82 24 -657 0 -810 -2 -14 -7
-45 -11 -70 -4 -25 -8 -56 -9 -70 -1 -14 -10 -61 -19 -105 -26 -130 -31 -152
-44 -199 -6 -20 -8 -36 -5 -36 3 0 0 -7 -7 -15 -7 -8 -10 -15 -7 -15 3 0 -10
-51 -29 -112 -19 -62 -36 -117 -37 -123 -1 -5 -6 -16 -10 -22 -5 -7 -6 -13 -3
-13 6 0 -20 -70 -90 -248 -51 -129 -152 -340 -219 -457 -25 -44 -48 -88 -52
-97 -3 -10 -9 -18 -14 -18 -5 0 -9 -5 -9 -10 0 -9 -164 -261 -191 -294 -9 -10
-23 -29 -89 -116 -14 -18 -33 -42 -43 -54 -11 -11 -35 -41 -55 -65 -115 -139
-400 -421 -485 -480 -12 -8 -34 -27 -48 -41 -15 -14 -37 -32 -49 -40 -12 -8
-36 -27 -54 -42 -17 -15 -34 -28 -37 -28 -3 0 -17 -9 -30 -21 -13 -11 -55 -42
-94 -67 -38 -25 -72 -49 -75 -52 -3 -3 -27 -19 -55 -35 -27 -15 -52 -32 -55
-36 -3 -5 -21 -15 -40 -24 -36 -16 -71 -36 -80 -45 -5 -6 -64 -37 -180 -96
-80 -41 -271 -129 -300 -139 -3 -1 -16 -6 -30 -12 -14 -6 -65 -25 -115 -43
-49 -17 -99 -36 -110 -40 -33 -14 -191 -61 -250 -75 -5 -1 -17 -5 -25 -8 -8
-3 -37 -11 -65 -17 -27 -7 -59 -14 -70 -17 -11 -3 -31 -6 -45 -7 -14 -1 -30
-5 -35 -8 -6 -3 -32 -9 -59 -12 -27 -4 -52 -9 -56 -11 -3 -2 -30 -6 -60 -10
-29 -3 -56 -7 -59 -9 -3 -2 -36 -7 -73 -10 -37 -4 -80 -9 -95 -12 -42 -8 -143
-14 -288 -19 -72 -2 -135 -4 -140 -5 -6 -1 -12 -2 -15 -1 -3 1 -66 4 -140 6
-74 2 -160 6 -190 9 -88 8 -162 16 -200 23 -19 3 -48 7 -65 9 -16 2 -52 8 -80
14 -27 5 -61 12 -75 14 -14 2 -56 12 -95 20 -38 9 -79 18 -90 20 -11 2 -47 12
-80 21 -33 9 -67 18 -75 20 -18 4 -229 73 -250 82 -8 3 -18 7 -22 8 -5 2 -10
4 -13 5 -3 1 -8 3 -12 5 -27 7 -328 138 -333 144 -3 3 -45 26 -95 51 -101 50
-258 141 -263 152 -2 5 -10 8 -18 8 -8 0 -14 5 -14 10 0 6 -5 10 -11 10 -12 0
-131 79 -141 94 -5 7 -8 7 -8 1 0 -6 -3 -6 -8 1 -4 5 -25 23 -47 39 -46 34
-235 184 -251 199 -6 6 -48 45 -94 86 -71 63 -241 230 -235 230 1 0 -21 25
-49 55 -90 96 -216 251 -276 340 -19 28 -36 52 -40 55 -9 7 -116 180 -144 231
-13 24 -34 64 -47 89 -13 25 -28 48 -33 51 -5 4 -6 11 -2 17 3 6 2 12 -3 14
-17 6 -153 342 -143 352 3 3 -1 6 -8 6 -7 0 -11 3 -7 6 3 4 0 22 -8 41 -8 20
-15 44 -15 54 0 11 -5 19 -11 19 -5 0 -8 3 -6 8 3 4 -8 57 -24 117 -16 61 -38
160 -49 220 -11 61 -22 121 -25 135 -3 13 -7 42 -10 65 -3 22 -8 58 -11 80 -4
22 -8 53 -10 70 -1 16 -5 49 -8 73 -3 23 -8 68 -11 100 -3 31 -8 82 -11 112
-11 115 -13 137 -19 215 -3 44 -8 96 -10 115 -8 61 -18 203 -19 252 -1 27 -3
48 -6 48 -6 0 -7 15 -15 135 -2 33 -5 60 -5 60 -3 0 -11 64 -15 115 -2 30 -5
55 -6 55 -2 0 -7 30 -12 85 -3 25 -8 61 -11 80 -3 19 -8 49 -11 65 -3 17 -8
46 -11 65 -2 19 -9 58 -15 85 -5 28 -11 61 -14 75 -15 79 -15 79 -43 74 -64
-11 -94 74 -69 196 3 14 9 43 13 65 10 51 11 54 14 60 1 3 4 10 5 15 1 6 3 11
5 13 1 1 3 9 5 17 4 19 53 170 62 190 3 8 7 17 8 20 1 3 9 22 18 44 9 21 17
42 17 46 0 5 4 10 8 12 5 2 28 35 51 75 23 40 49 77 57 84 8 6 14 16 14 21 0
5 20 36 45 68 25 32 45 61 45 65 0 4 6 13 13 20 6 8 24 31 39 52 35 50 234
325 245 338 4 6 24 33 43 60 19 28 40 57 47 65 7 8 39 53 72 100 33 47 64 90
69 95 5 6 11 15 13 20 2 6 40 64 84 131 104 157 98 147 150 240 25 45 45 86
45 92 0 6 3 12 8 14 14 6 55 122 60 170 5 51 -1 58 -27 31 -9 -10 -45 -43 -81
-73 -111 -94 -228 -209 -415 -405 -22 -23 -59 -64 -82 -91 -23 -27 -53 -62
-68 -79 -14 -16 -65 -82 -113 -145 -48 -63 -90 -116 -94 -118 -5 -2 -8 -10 -8
-17 0 -7 -7 -16 -16 -19 -8 -3 -13 -10 -10 -15 4 -5 3 -11 -1 -13 -12 -5 -73
-95 -73 -107 0 -5 -6 -14 -13 -18 -14 -9 -77 -110 -77 -124 0 -5 -4 -9 -10 -9
-5 0 -10 -7 -10 -15 0 -8 -5 -15 -12 -15 -6 0 -8 -3 -5 -6 4 -4 -2 -19 -12
-33 -48 -68 -189 -347 -251 -496 -23 -55 -45 -109 -50 -120 -28 -61 -78 -206
-126 -362 -29 -95 -24 -77 -69 -263 -40 -163 -43 -180 -50 -232 -3 -20 -9 -48
-14 -61 -6 -14 -8 -27 -6 -29 3 -2 0 -30 -5 -62 -5 -32 -12 -81 -15 -109 -3
-29 -7 -68 -10 -87 -27 -228 -27 -696 1 -950 2 -25 6 -63 8 -85 2 -22 7 -51
10 -65 3 -14 8 -47 12 -75 10 -76 12 -90 14 -90 1 0 3 -13 5 -30 1 -16 4 -31
5 -32 3 -4 4 -9 15 -68 9 -53 11 -63 14 -67 2 -2 4 -14 6 -28 5 -36 59 -240
90 -340 15 -47 31 -101 37 -120 9 -30 79 -217 103 -275 5 -11 9 -22 10 -25 48
-140 261 -549 383 -734 29 -43 52 -83 52 -87 0 -5 5 -9 10 -9 6 0 10 -7 10
-15 0 -8 3 -15 8 -15 4 0 15 -15 25 -32 10 -18 31 -49 47 -68 16 -19 34 -40
40 -47 5 -7 10 -16 10 -20 0 -4 16 -25 35 -46 19 -21 35 -41 35 -45 0 -4 13
-20 28 -37 15 -16 38 -43 50 -60 117 -151 472 -505 647 -643 6 -4 35 -28 66
-52 30 -25 68 -54 83 -65 16 -11 33 -25 40 -30 58 -52 395 -270 546 -354 114
-63 472 -240 500 -246 5 -2 54 -21 80 -32 8 -3 17 -7 20 -8 3 -1 19 -7 35 -14
17 -6 62 -23 100 -38 39 -14 79 -29 90 -33 29 -12 147 -52 165 -55 8 -2 16 -4
18 -5 1 -2 5 -3 10 -4 7 -1 34 -9 137 -40 28 -8 61 -17 75 -19 14 -3 32 -8 40
-11 8 -3 26 -8 40 -10 14 -3 52 -12 85 -20 33 -8 76 -17 96 -20 20 -3 42 -7
50 -10 8 -3 33 -7 56 -10 22 -3 52 -8 65 -11 12 -3 39 -7 58 -9 19 -3 71 -10
115 -15 155 -21 345 -32 557 -34 87 -1 158 0 158 3 0 3 24 5 53 6 55 1 198 12
257 20 19 2 55 7 80 10 84 10 95 12 95 14 0 1 11 3 25 5 52 6 112 17 175 31 6
1 21 4 35 7 65 13 213 51 290 74 47 14 91 26 98 26 6 0 12 5 12 10 0 6 3 8 6
4 6 -5 94 22 189 60 22 8 49 19 60 23 97 38 317 134 321 141 3 5 14 9 25 9 10
0 19 5 19 10 0 6 7 10 15 10 8 0 36 12 62 27 27 16 75 42 108 58 32 17 64 34
70 38 9 7 118 72 195 117 14 8 41 27 60 41 19 14 43 29 53 32 9 4 17 11 17 17
0 5 5 10 10 10 11 0 195 129 229 161 11 11 21 16 21 12 0 -4 6 0 13 8 6 8 44
40 82 71 39 31 80 66 93 78 12 11 22 19 22 17 0 -8 165 147 305 288 157 158
198 202 280 300 27 33 56 66 63 73 7 8 25 30 40 50 15 20 34 44 42 53 56 65
280 373 280 386 0 4 8 16 19 27 25 28 201 320 201 334 0 6 4 12 9 14 8 3 81
136 128 233 14 28 28 57 33 65 10 16 52 102 55 110 0 3 16 36 33 74 18 38 32
70 32 72 0 2 11 28 25 58 14 30 25 60 25 65 0 6 5 11 12 11 6 0 9 3 5 6 -3 4
1 23 9 43 8 20 24 59 34 86 51 139 89 246 89 248 0 2 9 31 18 55 7 19 9 28 17
57 3 11 12 45 21 75 42 141 108 409 121 490 2 14 7 36 10 50 4 14 8 42 10 63
2 20 5 41 8 46 3 4 8 35 12 67 3 32 11 65 16 72 7 8 7 12 0 12 -6 0 -7 13 -2
38 5 20 11 66 15 102 3 36 8 85 10 110 17 161 22 473 11 685 -8 137 -9 151
-21 255 -4 36 -8 74 -10 85 -1 11 -5 36 -8 55 -4 19 -9 51 -11 70 -4 29 -20
114 -40 216 -2 12 -9 38 -14 58 -6 20 -8 36 -6 36 3 0 0 8 -5 19 -6 10 -13 33
-16 52 -3 19 -12 55 -21 80 -8 25 -16 54 -19 65 -12 59 -118 347 -164 447 -17
37 -31 69 -31 72 -1 7 -99 194 -141 268 -22 38 -39 73 -39 78 0 5 -4 9 -10 9
-5 0 -10 7 -10 15 0 8 -4 15 -10 15 -5 0 -10 4 -10 10 0 13 -99 164 -111 168
-5 2 -9 10 -9 18 0 8 -4 14 -10 14 -5 0 -10 5 -10 11 0 9 -54 81 -87 117 -7 7
-13 17 -13 21 0 4 -13 20 -28 37 -15 16 -50 56 -77 89 -59 71 -287 300 -365
367 -30 26 -66 57 -80 69 -14 12 -63 51 -110 88 -47 36 -86 69 -88 73 -2 5 -8
8 -13 8 -5 0 -35 19 -66 43 -78 58 -243 163 -328 208 -22 12 -42 24 -45 28 -3
3 -43 26 -90 50 -47 24 -99 52 -116 62 -17 10 -34 16 -37 12 -4 -3 -7 -1 -7 5
0 7 -4 12 -9 12 -5 0 -49 18 -98 41 -122 56 -139 64 -213 94 -73 30 -279 102
-313 109 -12 3 -55 14 -95 25 -40 10 -75 20 -77 20 -3 1 -6 1 -7 2 -2 0 -12 2
-23 4 -11 2 -47 9 -80 15 -33 6 -69 13 -80 15 -11 2 -20 4 -20 5 0 1 -11 3
-25 4 -14 2 -52 7 -85 11 -102 14 -115 15 -285 19 -91 2 -183 0 -205 -4z"/>
<path d="M3125 9615 c-44 -12 -93 -28 -110 -34 -16 -7 -30 -12 -30 -11 0 2
-18 -6 -40 -15 -22 -10 -46 -17 -54 -16 -7 1 -11 -4 -9 -11 4 -12 41 -15 78
-5 61 16 76 20 85 26 6 3 15 6 22 7 19 3 95 43 123 64 30 24 33 24 -65 -5z"/>
<path d="M2856 9521 c-3 -5 1 -11 9 -15 8 -3 15 -1 15 4 0 13 -18 22 -24 11z"/>
<path d="M3279 9386 c-2 -2 -21 -7 -42 -10 -21 -3 -46 -10 -55 -15 -19 -10
-65 -61 -60 -66 6 -6 163 74 166 85 4 10 -1 13 -9 6z"/>
<path d="M2385 9343 c-22 -8 -65 -24 -95 -35 -30 -12 -85 -36 -122 -54 -38
-19 -68 -30 -68 -26 0 4 -4 2 -8 -4 -4 -5 -38 -27 -76 -48 -65 -35 -227 -138
-253 -161 -22 -18 -37 -29 -75 -55 -21 -14 -38 -28 -38 -32 0 -5 -5 -8 -10 -8
-6 0 -23 -12 -38 -27 -15 -16 -43 -40 -62 -54 -46 -35 -272 -260 -335 -334
-27 -32 -62 -72 -77 -89 -32 -35 -36 -51 -10 -36 9 5 40 19 67 30 28 11 57 24
65 29 9 5 49 26 90 47 41 22 77 42 78 47 2 4 8 7 13 7 6 0 37 18 69 40 32 22
63 40 69 40 5 0 11 3 13 8 2 4 23 20 48 36 49 32 264 192 291 216 9 8 32 26
50 40 18 14 40 32 49 40 9 8 31 28 50 44 19 15 63 55 98 87 34 33 62 58 62 56
0 -3 39 36 88 86 48 50 94 97 102 103 24 20 8 23 -35 7z"/>
<path d="M2826 9183 c-4 -5 -11 -8 -14 -9 -13 -1 -68 -24 -97 -41 -16 -9 -39
-21 -50 -27 -11 -6 -22 -13 -25 -16 -3 -3 -29 -23 -57 -45 -29 -21 -51 -40
-49 -42 5 -6 60 20 68 32 4 5 8 7 8 2 0 -9 112 53 122 67 4 6 8 7 8 3 0 -4 12
4 27 18 15 14 32 25 38 25 6 0 16 9 23 20 12 20 11 26 -2 13z"/>
</g>
</svg>
